\relax 
\providecommand\hyper@newdestlabel[2]{}
\providecommand*\new@tpo@label[2]{}
\providecommand\HyperFirstAtBeginDocument{\AtBeginDocument}
\HyperFirstAtBeginDocument{\ifx\hyper@anchor\@undefined
\global\let\oldcontentsline\contentsline
\gdef\contentsline#1#2#3#4{\oldcontentsline{#1}{#2}{#3}}
\global\let\oldnewlabel\newlabel
\gdef\newlabel#1#2{\newlabelxx{#1}#2}
\gdef\newlabelxx#1#2#3#4#5#6{\oldnewlabel{#1}{{#2}{#3}}}
\AtEndDocument{\ifx\hyper@anchor\@undefined
\let\contentsline\oldcontentsline
\let\newlabel\oldnewlabel
\fi}
\fi}
\global\let\hyper@last\relax 
\gdef\HyperFirstAtBeginDocument#1{#1}
\providecommand\HyField@AuxAddToFields[1]{}
\providecommand\HyField@AuxAddToCoFields[2]{}
\abx@aux@refcontext{nty/global//global/global}
\providecommand \oddpage@label [2]{}
\@writefile{toc}{\boolfalse {citerequest}\boolfalse {citetracker}\boolfalse {pagetracker}\boolfalse {backtracker}\relax }
\@writefile{lof}{\boolfalse {citerequest}\boolfalse {citetracker}\boolfalse {pagetracker}\boolfalse {backtracker}\relax }
\@writefile{lot}{\boolfalse {citerequest}\boolfalse {citetracker}\boolfalse {pagetracker}\boolfalse {backtracker}\relax }
\babel@aux{italian}{}
\babel@aux{italian}{}
\babel@aux{italian}{}
\babel@aux{english}{}
\abx@aux@cite{STRUCK}
\abx@aux@segm{0}{0}{STRUCK}
\abx@aux@cite{TLD}
\abx@aux@segm{0}{0}{TLD}
\abx@aux@cite{KCF}
\abx@aux@segm{0}{0}{KCF}
\abx@aux@cite{AlexNet}
\abx@aux@segm{0}{0}{AlexNet}
\abx@aux@cite{VGG}
\abx@aux@segm{0}{0}{VGG}
\abx@aux@cite{TrackingReview}
\abx@aux@segm{0}{0}{TrackingReview}
\abx@aux@segm{0}{0}{TrackingReview}
\@writefile{toc}{\defcounter {refsection}{0}\relax }\@writefile{toc}{\contentsline {chapter}{\numberline {1}Introduction}{5}{chapter.1}}
\@writefile{lof}{\defcounter {refsection}{0}\relax }\@writefile{lof}{\addvspace {10\p@ }}
\@writefile{lot}{\defcounter {refsection}{0}\relax }\@writefile{lot}{\addvspace {10\p@ }}
\@writefile{lof}{\defcounter {refsection}{0}\relax }\@writefile{lof}{\contentsline {figure}{\numberline {1.1}{\ignorespaces Trackers classification. Source: \cite {TrackingReview}.\relax }}{5}{figure.caption.3}}
\abx@aux@cite{ANNGuide}
\abx@aux@segm{0}{0}{ANNGuide}
\abx@aux@segm{0}{0}{ANNGuide}
\@writefile{toc}{\defcounter {refsection}{0}\relax }\@writefile{toc}{\contentsline {chapter}{\numberline {2}Background}{7}{chapter.2}}
\@writefile{lof}{\defcounter {refsection}{0}\relax }\@writefile{lof}{\addvspace {10\p@ }}
\@writefile{lot}{\defcounter {refsection}{0}\relax }\@writefile{lot}{\addvspace {10\p@ }}
\@writefile{toc}{\defcounter {refsection}{0}\relax }\@writefile{toc}{\contentsline {section}{\numberline {2.1}Artificial neural networks}{7}{section.2.1}}
\@writefile{toc}{\defcounter {refsection}{0}\relax }\@writefile{toc}{\contentsline {subsection}{\numberline {2.1.1}Overview}{7}{subsection.2.1.1}}
\@writefile{lof}{\defcounter {refsection}{0}\relax }\@writefile{lof}{\contentsline {figure}{\numberline {2.1}{\ignorespaces An example of an artifical neural network. Source: \cite {ANNGuide}\relax }}{7}{figure.caption.4}}
\@writefile{toc}{\defcounter {refsection}{0}\relax }\@writefile{toc}{\contentsline {subsection}{\numberline {2.1.2}Training}{8}{subsection.2.1.2}}
\@writefile{toc}{\defcounter {refsection}{0}\relax }\@writefile{toc}{\contentsline {subsubsection}{Forward propagation}{8}{section*.5}}
\abx@aux@cite{CNNGuide}
\abx@aux@segm{0}{0}{CNNGuide}
\abx@aux@segm{0}{0}{CNNGuide}
\@writefile{toc}{\defcounter {refsection}{0}\relax }\@writefile{toc}{\contentsline {section}{\numberline {2.2}Convolutional Neural Networks}{9}{section.2.2}}
\@writefile{toc}{\defcounter {refsection}{0}\relax }\@writefile{toc}{\contentsline {subsection}{\numberline {2.2.1}Overview}{9}{subsection.2.2.1}}
\@writefile{toc}{\defcounter {refsection}{0}\relax }\@writefile{toc}{\contentsline {subsection}{\numberline {2.2.2}Layers}{9}{subsection.2.2.2}}
\@writefile{toc}{\defcounter {refsection}{0}\relax }\@writefile{toc}{\contentsline {subsubsection}{Convolutional layer}{9}{section*.6}}
\abx@aux@segm{0}{0}{CNNGuide}
\abx@aux@segm{0}{0}{CNNGuide}
\abx@aux@segm{0}{0}{CNNGuide}
\abx@aux@segm{0}{0}{CNNGuide}
\@writefile{lof}{\defcounter {refsection}{0}\relax }\@writefile{lof}{\contentsline {figure}{\numberline {2.2}{\ignorespaces An example of a convolution operation. Source: \cite {CNNGuide}\relax }}{10}{figure.caption.7}}
\@writefile{toc}{\defcounter {refsection}{0}\relax }\@writefile{toc}{\contentsline {subsubsection}{Activation layer}{10}{section*.8}}
\@writefile{lof}{\defcounter {refsection}{0}\relax }\@writefile{lof}{\contentsline {figure}{\numberline {2.3}{\ignorespaces An example of the output of a ReLU layer. Source: \cite {CNNGuide}\relax }}{10}{figure.caption.9}}
\@writefile{toc}{\defcounter {refsection}{0}\relax }\@writefile{toc}{\contentsline {subsubsection}{Pooling layer}{10}{section*.10}}
\abx@aux@segm{0}{0}{CNNGuide}
\abx@aux@segm{0}{0}{CNNGuide}
\@writefile{lof}{\defcounter {refsection}{0}\relax }\@writefile{lof}{\contentsline {figure}{\numberline {2.4}{\ignorespaces An example of the output of a pool layer. Source: \cite {CNNGuide}\relax }}{11}{figure.caption.11}}
\@writefile{toc}{\defcounter {refsection}{0}\relax }\@writefile{toc}{\contentsline {subsubsection}{Fully connected layer}{11}{section*.12}}
\@writefile{lof}{\defcounter {refsection}{0}\relax }\@writefile{lof}{\contentsline {figure}{\numberline {2.5}{\ignorespaces An example of a fully connected layer. Source: \cite {CNNGuide}\relax }}{11}{figure.caption.13}}
\abx@aux@cite{RNNGuide}
\abx@aux@segm{0}{0}{RNNGuide}
\abx@aux@segm{0}{0}{RNNGuide}
\abx@aux@segm{0}{0}{RNNGuide}
\abx@aux@segm{0}{0}{RNNGuide}
\@writefile{toc}{\defcounter {refsection}{0}\relax }\@writefile{toc}{\contentsline {section}{\numberline {2.3}Recurrent Neural Networks}{12}{section.2.3}}
\@writefile{toc}{\defcounter {refsection}{0}\relax }\@writefile{toc}{\contentsline {subsection}{\numberline {2.3.1}Overview}{12}{subsection.2.3.1}}
\@writefile{lof}{\defcounter {refsection}{0}\relax }\@writefile{lof}{\contentsline {figure}{\numberline {2.6}{\ignorespaces An example of a recurrent neural network. Source: \cite {RNNGuide}\relax }}{12}{figure.caption.14}}
\@writefile{toc}{\defcounter {refsection}{0}\relax }\@writefile{toc}{\contentsline {subsection}{\numberline {2.3.2}RNN types}{12}{subsection.2.3.2}}
\@writefile{toc}{\defcounter {refsection}{0}\relax }\@writefile{toc}{\contentsline {subsubsection}{Vanilla RNN}{12}{section*.15}}
\@writefile{lof}{\defcounter {refsection}{0}\relax }\@writefile{lof}{\contentsline {figure}{\numberline {2.7}{\ignorespaces An example of a recurrent neural network. Source: \cite {RNNGuide}\relax }}{12}{figure.caption.16}}
\abx@aux@cite{LSTMImage}
\abx@aux@segm{0}{0}{LSTMImage}
\abx@aux@segm{0}{0}{LSTMImage}
\abx@aux@cite{lstmPaper}
\abx@aux@segm{0}{0}{lstmPaper}
\@writefile{toc}{\defcounter {refsection}{0}\relax }\@writefile{toc}{\contentsline {subsubsection}{Long Short Term Memory}{13}{section*.17}}
\@writefile{lof}{\defcounter {refsection}{0}\relax }\@writefile{lof}{\contentsline {figure}{\numberline {2.8}{\ignorespaces An example of a Long Short-Term Memory. Source: \cite {LSTMImage}\relax }}{13}{figure.caption.18}}
\abx@aux@cite{GRUGuide}
\abx@aux@segm{0}{0}{GRUGuide}
\abx@aux@segm{0}{0}{GRUGuide}
\abx@aux@cite{GRUPaper}
\abx@aux@segm{0}{0}{GRUPaper}
\@writefile{toc}{\defcounter {refsection}{0}\relax }\@writefile{toc}{\contentsline {subsubsection}{Gated Recurrent Unit}{14}{section*.19}}
\@writefile{lof}{\defcounter {refsection}{0}\relax }\@writefile{lof}{\contentsline {figure}{\numberline {2.9}{\ignorespaces An example of a Gated Recurrent Unit. Source: \cite {GRUGuide}\relax }}{14}{figure.caption.20}}
\abx@aux@segm{0}{0}{VGG}
\abx@aux@cite{ResNet50}
\abx@aux@segm{0}{0}{ResNet50}
\abx@aux@segm{0}{0}{ResNet50}
\abx@aux@segm{0}{0}{ResNet50}
\abx@aux@segm{0}{0}{ResNet50}
\abx@aux@segm{0}{0}{ResNet50}
\abx@aux@segm{0}{0}{ResNet50}
\abx@aux@segm{0}{0}{ResNet50}
\abx@aux@segm{0}{0}{ResNet50}
\@writefile{toc}{\defcounter {refsection}{0}\relax }\@writefile{toc}{\contentsline {section}{\numberline {2.4}ResNets}{15}{section.2.4}}
\newlabel{sect:resNets}{{2.4}{15}{ResNets}{section.2.4}{}}
\@writefile{lof}{\defcounter {refsection}{0}\relax }\@writefile{lof}{\contentsline {figure}{\numberline {2.10}{\ignorespaces Visualization of the residual block used in \cite {ResNet50}. A residual block consists of 2 cascaded convolutional layers. The block's output is defined as the sum between the block's input and the last layer's output. Source: \cite {ResNet50}.\relax }}{15}{figure.caption.21}}
\providecommand*\caption@xref[2]{\@setref\relax\@undefined{#1}}
\newlabel{fig:resBlock}{{2.10}{15}{Visualization of the residual block used in \cite {ResNet50}. A residual block consists of 2 cascaded convolutional layers. The block's output is defined as the sum between the block's input and the last layer's output. Source: \cite {ResNet50}.\relax }{figure.caption.21}{}}
\abx@aux@cite{ResLSTM}
\abx@aux@segm{0}{0}{ResLSTM}
\abx@aux@segm{0}{0}{ResLSTM}
\abx@aux@segm{0}{0}{ResLSTM}
\abx@aux@segm{0}{0}{ResLSTM}
\abx@aux@segm{0}{0}{ResLSTM}
\abx@aux@segm{0}{0}{ResLSTM}
\abx@aux@segm{0}{0}{ResNet50}
\abx@aux@segm{0}{0}{ResLSTM}
\abx@aux@segm{0}{0}{ResNet50}
\abx@aux@segm{0}{0}{ResLSTM}
\abx@aux@segm{0}{0}{ResLSTM}
\abx@aux@segm{0}{0}{ResNet50}
\abx@aux@segm{0}{0}{ResLSTM}
\@writefile{lof}{\defcounter {refsection}{0}\relax }\@writefile{lof}{\contentsline {figure}{\numberline {2.11}{\ignorespaces Training on CIFAR-10. Dashed lines denote training error, whereas bold ones represent testing error. Left: plain networks. Right: resNets. Notice how in plain networks both training and validation loss increases with the depth of the network, whereas with resNets deeper networks achieve the best results. Source: \cite {ResNet50}.\relax }}{16}{figure.caption.22}}
\newlabel{fig:resNetResults}{{2.11}{16}{Training on CIFAR-10. Dashed lines denote training error, whereas bold ones represent testing error. Left: plain networks. Right: resNets. Notice how in plain networks both training and validation loss increases with the depth of the network, whereas with resNets deeper networks achieve the best results. Source: \cite {ResNet50}.\relax }{figure.caption.22}{}}
\@writefile{lof}{\defcounter {refsection}{0}\relax }\@writefile{lof}{\contentsline {figure}{\numberline {2.12}{\ignorespaces Visualization of the residual LSTM architecture adopted in \cite {ResLSTM}: a residual block is defined as 2 LSTM connected in sequence, whose output is summed with its input. Source: \cite {ResLSTM}.\relax }}{16}{figure.caption.23}}
\newlabel{fig:resLstmNet}{{2.12}{16}{Visualization of the residual LSTM architecture adopted in \cite {ResLSTM}: a residual block is defined as 2 LSTM connected in sequence, whose output is summed with its input. Source: \cite {ResLSTM}.\relax }{figure.caption.23}{}}
\abx@aux@cite{DenseNet}
\abx@aux@segm{0}{0}{DenseNet}
\abx@aux@segm{0}{0}{ResNet50}
\abx@aux@segm{0}{0}{DenseNet}
\abx@aux@segm{0}{0}{DenseNet}
\abx@aux@segm{0}{0}{DenseNet}
\abx@aux@segm{0}{0}{DenseNet}
\@writefile{lof}{\defcounter {refsection}{0}\relax }\@writefile{lof}{\contentsline {figure}{\numberline {2.13}{\ignorespaces Empirical results of the residual LSTM architecture proposed in \cite {ResLSTM}: standard deep LSTM networks perform worse than their shallow counterparts, whereas the reverse applies with residual connections. Note the simmetry of these results with the ones provided by \cite {ResNet50}. Source: \cite {ResLSTM}.\relax }}{17}{figure.caption.24}}
\newlabel{fig:resLstmResults}{{2.13}{17}{Empirical results of the residual LSTM architecture proposed in \cite {ResLSTM}: standard deep LSTM networks perform worse than their shallow counterparts, whereas the reverse applies with residual connections. Note the simmetry of these results with the ones provided by \cite {ResNet50}. Source: \cite {ResLSTM}.\relax }{figure.caption.24}{}}
\@writefile{toc}{\defcounter {refsection}{0}\relax }\@writefile{toc}{\contentsline {section}{\numberline {2.5}DenseNets}{17}{section.2.5}}
\newlabel{sect:denseNets}{{2.5}{17}{DenseNets}{section.2.5}{}}
\abx@aux@segm{0}{0}{ResNet50}
\abx@aux@segm{0}{0}{ResNet50}
\abx@aux@segm{0}{0}{DenseNet}
\abx@aux@segm{0}{0}{DenseNet}
\abx@aux@segm{0}{0}{ResNet50}
\abx@aux@segm{0}{0}{DenseNet}
\abx@aux@segm{0}{0}{DenseNet}
\abx@aux@cite{denseRnn}
\abx@aux@segm{0}{0}{denseRnn}
\abx@aux@segm{0}{0}{denseRnn}
\abx@aux@segm{0}{0}{denseRnn}
\abx@aux@segm{0}{0}{denseRnn}
\abx@aux@segm{0}{0}{denseRnn}
\@writefile{lof}{\defcounter {refsection}{0}\relax }\@writefile{lof}{\contentsline {figure}{\numberline {2.14}{\ignorespaces Visualization of the dense block used in \cite {DenseNet}: each block is composed of several convolutional layers, each of which takes as input all preceding feature maps. Source: \cite {DenseNet}\relax }}{18}{figure.caption.25}}
\newlabel{fig:denseNetBlock}{{2.14}{18}{Visualization of the dense block used in \cite {DenseNet}: each block is composed of several convolutional layers, each of which takes as input all preceding feature maps. Source: \cite {DenseNet}\relax }{figure.caption.25}{}}
\@writefile{lof}{\defcounter {refsection}{0}\relax }\@writefile{lof}{\contentsline {figure}{\numberline {2.15}{\ignorespaces Visualization of the difference between ResNets \cite {ResNet50} and DenseNets \cite {DenseNet}: number of parameters and validation errors are showed on the horizontal and vertical axes, respectively. Note how DenseNets achieve the same validation error at a lower number of parameters and better results at the same model size. Source: \cite {DenseNet}.\relax }}{18}{figure.caption.26}}
\newlabel{fig:denseNetResults}{{2.15}{18}{Visualization of the difference between ResNets \cite {ResNet50} and DenseNets \cite {DenseNet}: number of parameters and validation errors are showed on the horizontal and vertical axes, respectively. Note how DenseNets achieve the same validation error at a lower number of parameters and better results at the same model size. Source: \cite {DenseNet}.\relax }{figure.caption.26}{}}
\abx@aux@segm{0}{0}{denseRnn}
\abx@aux@segm{0}{0}{denseRnn}
\@writefile{lof}{\defcounter {refsection}{0}\relax }\@writefile{lof}{\contentsline {figure}{\numberline {2.16}{\ignorespaces Visualization of the architecture used in \cite {denseRnn}: each layer in the network receives as input the concatenation of the input layer and the output of all previous layers. Source: \cite {denseRnn}.\relax }}{19}{figure.caption.27}}
\newlabel{fig:denseRnnNet}{{2.16}{19}{Visualization of the architecture used in \cite {denseRnn}: each layer in the network receives as input the concatenation of the input layer and the output of all previous layers. Source: \cite {denseRnn}.\relax }{figure.caption.27}{}}
\@writefile{lof}{\defcounter {refsection}{0}\relax }\@writefile{lof}{\contentsline {figure}{\numberline {2.17}{\ignorespaces Evaluation of densely connected RNN for the PTB language modelling task. Source: \cite {denseRnn}\relax }}{19}{figure.caption.28}}
\newlabel{fig:denseRnnResults}{{2.17}{19}{Evaluation of densely connected RNN for the PTB language modelling task. Source: \cite {denseRnn}\relax }{figure.caption.28}{}}
\abx@aux@cite{Re3}
\abx@aux@segm{0}{0}{Re3}
\abx@aux@segm{0}{0}{Re3}
\@writefile{toc}{\defcounter {refsection}{0}\relax }\@writefile{toc}{\contentsline {chapter}{\numberline {3}Related work}{21}{chapter.3}}
\@writefile{lof}{\defcounter {refsection}{0}\relax }\@writefile{lof}{\addvspace {10\p@ }}
\@writefile{lot}{\defcounter {refsection}{0}\relax }\@writefile{lot}{\addvspace {10\p@ }}
\@writefile{toc}{\defcounter {refsection}{0}\relax }\@writefile{toc}{\contentsline {section}{\numberline {3.1}Overview}{21}{section.3.1}}
\@writefile{toc}{\defcounter {refsection}{0}\relax }\@writefile{toc}{\contentsline {section}{\numberline {3.2}Re3}{21}{section.3.2}}
\@writefile{lof}{\defcounter {refsection}{0}\relax }\@writefile{lof}{\contentsline {figure}{\numberline {3.1}{\ignorespaces Network structure of Re\textsuperscript  {3}. Source: \cite {Re3}\relax }}{21}{figure.caption.29}}
\@writefile{toc}{\defcounter {refsection}{0}\relax }\@writefile{toc}{\contentsline {subsection}{\numberline {3.2.1}Overview}{21}{subsection.3.2.1}}
\abx@aux@segm{0}{0}{AlexNet}
\abx@aux@segm{0}{0}{Re3}
\abx@aux@segm{0}{0}{Re3}
\abx@aux@segm{0}{0}{Re3}
\abx@aux@segm{0}{0}{Re3}
\@writefile{toc}{\defcounter {refsection}{0}\relax }\@writefile{toc}{\contentsline {subsection}{\numberline {3.2.2}Components}{22}{subsection.3.2.2}}
\@writefile{toc}{\defcounter {refsection}{0}\relax }\@writefile{toc}{\contentsline {subsection}{\numberline {3.2.3}Configurations}{22}{subsection.3.2.3}}
\@writefile{lof}{\defcounter {refsection}{0}\relax }\@writefile{lof}{\contentsline {figure}{\numberline {3.2}{\ignorespaces A list of the tested configurations in the Re\textsuperscript  {3} paper. Source: \cite {Re3}\relax }}{22}{figure.caption.30}}
\abx@aux@segm{0}{0}{Re3}
\abx@aux@segm{0}{0}{Re3}
\abx@aux@segm{0}{0}{Re3}
\abx@aux@segm{0}{0}{Re3}
\@writefile{lof}{\defcounter {refsection}{0}\relax }\@writefile{lof}{\contentsline {figure}{\numberline {3.3}{\ignorespaces A visualization of the GOTURN architecture. Source: \cite {Re3}\relax }}{23}{figure.caption.31}}
\@writefile{lof}{\defcounter {refsection}{0}\relax }\@writefile{lof}{\contentsline {figure}{\numberline {3.4}{\ignorespaces A visualization of the model with skip connections(dashed arrows). Source: \cite {Re3}\relax }}{23}{figure.caption.32}}
\@writefile{lof}{\defcounter {refsection}{0}\relax }\@writefile{lof}{\contentsline {figure}{\numberline {3.5}{\ignorespaces A visualization of the full model. Source: \cite {Re3}\relax }}{24}{figure.caption.33}}
\@writefile{toc}{\defcounter {refsection}{0}\relax }\@writefile{toc}{\contentsline {subsection}{\numberline {3.2.4}Training}{24}{subsection.3.2.4}}
\newlabel{sect:re3Training}{{3.2.4}{24}{Training}{subsection.3.2.4}{}}
\abx@aux@segm{0}{0}{Re3}
\abx@aux@segm{0}{0}{Re3}
\abx@aux@segm{0}{0}{Re3}
\abx@aux@segm{0}{0}{Re3}
\@writefile{toc}{\defcounter {refsection}{0}\relax }\@writefile{toc}{\contentsline {subsection}{\numberline {3.2.5}Results}{25}{subsection.3.2.5}}
\@writefile{lof}{\defcounter {refsection}{0}\relax }\@writefile{lof}{\contentsline {figure}{\numberline {3.6}{\ignorespaces Comparison of trackers using the VOT 2014 and 2016 benchmarking suites: the size of the circle denotes the tracker's framerate, whereas its x and y coordinates represent robustness and accuracy, respectively. Source: \cite {Re3}\relax }}{25}{figure.caption.34}}
\abx@aux@cite{ROLO}
\abx@aux@segm{0}{0}{ROLO}
\abx@aux@segm{0}{0}{ROLO}
\abx@aux@segm{0}{0}{ROLO}
\abx@aux@segm{0}{0}{ROLO}
\@writefile{lof}{\defcounter {refsection}{0}\relax }\@writefile{lof}{\contentsline {figure}{\numberline {3.7}{\ignorespaces Qualitative results for Re\textsuperscript  {3}. Green and red respectively represent the ground truth and the model's bounding boxes. Source: \cite {Re3}\relax }}{26}{figure.caption.35}}
\@writefile{toc}{\defcounter {refsection}{0}\relax }\@writefile{toc}{\contentsline {section}{\numberline {3.3}ROLO}{26}{section.3.3}}
\@writefile{lof}{\defcounter {refsection}{0}\relax }\@writefile{lof}{\contentsline {figure}{\numberline {3.8}{\ignorespaces Network structure of ROLO. Source: \cite {ROLO}\relax }}{26}{figure.caption.36}}
\@writefile{toc}{\defcounter {refsection}{0}\relax }\@writefile{toc}{\contentsline {subsection}{\numberline {3.3.1}Overview}{26}{subsection.3.3.1}}
\@writefile{toc}{\defcounter {refsection}{0}\relax }\@writefile{toc}{\contentsline {subsection}{\numberline {3.3.2}Components}{26}{subsection.3.3.2}}
\abx@aux@segm{0}{0}{ROLO}
\abx@aux@segm{0}{0}{ROLO}
\abx@aux@segm{0}{0}{ROLO}
\abx@aux@segm{0}{0}{ROLO}
\@writefile{lof}{\defcounter {refsection}{0}\relax }\@writefile{lof}{\contentsline {figure}{\numberline {3.9}{\ignorespaces A more in depth network visualization of ROLO. Source: \cite {ROLO}\relax }}{27}{figure.caption.37}}
\@writefile{toc}{\defcounter {refsection}{0}\relax }\@writefile{toc}{\contentsline {subsection}{\numberline {3.3.3}Configurations}{27}{subsection.3.3.3}}
\@writefile{lof}{\defcounter {refsection}{0}\relax }\@writefile{lof}{\contentsline {figure}{\numberline {3.10}{\ignorespaces Success plots of OPE on 3 experiments: (a) LSTM trained on 22 videos of OTB-30 and tested on the rest 8 clips, (b) LSTM has been trained with 1/3 of the videos in OTB-30 and tested on the whole sequence frames, (c) LSTM has been trained with 1/3 ground truths, but with all sequence frames. Source: \cite {ROLO}\relax }}{27}{figure.caption.38}}
\abx@aux@segm{0}{0}{ROLO}
\abx@aux@segm{0}{0}{ROLO}
\@writefile{lof}{\defcounter {refsection}{0}\relax }\@writefile{lof}{\contentsline {figure}{\numberline {3.11}{\ignorespaces Average intersection over union scores and framerate at different step sizes. Source: \cite {ROLO}\relax }}{28}{figure.caption.39}}
\@writefile{toc}{\defcounter {refsection}{0}\relax }\@writefile{toc}{\contentsline {subsection}{\numberline {3.3.4}Training}{28}{subsection.3.3.4}}
\@writefile{toc}{\defcounter {refsection}{0}\relax }\@writefile{toc}{\contentsline {subsection}{\numberline {3.3.5}Results}{28}{subsection.3.3.5}}
\@writefile{lof}{\defcounter {refsection}{0}\relax }\@writefile{lof}{\contentsline {figure}{\numberline {3.12}{\ignorespaces Success plots of OPE on 3 experiments. Source: \cite {ROLO}\relax }}{28}{figure.caption.40}}
\abx@aux@segm{0}{0}{ROLO}
\abx@aux@segm{0}{0}{ROLO}
\abx@aux@cite{RFL}
\abx@aux@segm{0}{0}{RFL}
\abx@aux@segm{0}{0}{RFL}
\@writefile{lof}{\defcounter {refsection}{0}\relax }\@writefile{lof}{\contentsline {figure}{\numberline {3.13}{\ignorespaces Average intersection over union scores and framerate at different step sizes. Source: \cite {ROLO}\relax }}{29}{figure.caption.41}}
\@writefile{toc}{\defcounter {refsection}{0}\relax }\@writefile{toc}{\contentsline {section}{\numberline {3.4}RFL}{29}{section.3.4}}
\@writefile{lof}{\defcounter {refsection}{0}\relax }\@writefile{lof}{\contentsline {figure}{\numberline {3.14}{\ignorespaces Network structure of Recurrent Filter Learning. Source: \cite {RFL}\relax }}{29}{figure.caption.42}}
\@writefile{toc}{\defcounter {refsection}{0}\relax }\@writefile{toc}{\contentsline {subsection}{\numberline {3.4.1}Overview}{29}{subsection.3.4.1}}
\abx@aux@segm{0}{0}{RFL}
\abx@aux@segm{0}{0}{RFL}
\abx@aux@segm{0}{0}{RFL}
\abx@aux@segm{0}{0}{RFL}
\@writefile{toc}{\defcounter {refsection}{0}\relax }\@writefile{toc}{\contentsline {subsection}{\numberline {3.4.2}Components}{30}{subsection.3.4.2}}
\@writefile{lof}{\defcounter {refsection}{0}\relax }\@writefile{lof}{\contentsline {figure}{\numberline {3.15}{\ignorespaces The architecture of convolutional LSTM. Source: \cite {RFL}\relax }}{30}{figure.caption.43}}
\@writefile{lof}{\defcounter {refsection}{0}\relax }\@writefile{lof}{\contentsline {figure}{\numberline {3.16}{\ignorespaces The cnn architecture used for both E-CNN and S-CNN. Source: \cite {RFL}\relax }}{30}{figure.caption.44}}
\@writefile{toc}{\defcounter {refsection}{0}\relax }\@writefile{toc}{\contentsline {subsection}{\numberline {3.4.3}Configurations}{30}{subsection.3.4.3}}
\abx@aux@segm{0}{0}{RFL}
\abx@aux@segm{0}{0}{RFL}
\abx@aux@segm{0}{0}{RFL}
\abx@aux@segm{0}{0}{RFL}
\abx@aux@segm{0}{0}{RFL}
\abx@aux@segm{0}{0}{RFL}
\@writefile{lof}{\defcounter {refsection}{0}\relax }\@writefile{lof}{\contentsline {figure}{\numberline {3.17}{\ignorespaces OPE on OTB100 results for different configurations of RFL. Source: \cite {RFL}\relax }}{31}{figure.caption.45}}
\@writefile{toc}{\defcounter {refsection}{0}\relax }\@writefile{toc}{\contentsline {subsection}{\numberline {3.4.4}Training}{31}{subsection.3.4.4}}
\@writefile{toc}{\defcounter {refsection}{0}\relax }\@writefile{toc}{\contentsline {subsection}{\numberline {3.4.5}Results}{31}{subsection.3.4.5}}
\@writefile{lof}{\defcounter {refsection}{0}\relax }\@writefile{lof}{\contentsline {figure}{\numberline {3.18}{\ignorespaces Success plots for OPE OTB100 on 6 challenging attributes. Source: \cite {RFL}\relax }}{32}{figure.caption.46}}
\@writefile{lof}{\defcounter {refsection}{0}\relax }\@writefile{lof}{\contentsline {figure}{\numberline {3.19}{\ignorespaces Qualitative results for RLF and other trackers. Source: \cite {RFL}\relax }}{32}{figure.caption.47}}
\abx@aux@cite{WuLimYang13}
\abx@aux@segm{0}{0}{WuLimYang13}
\abx@aux@cite{VOT_TPAMI}
\abx@aux@segm{0}{0}{VOT_TPAMI}
\abx@aux@cite{Geiger2012CVPR}
\abx@aux@segm{0}{0}{Geiger2012CVPR}
\abx@aux@cite{MOTChallenge2015}
\abx@aux@segm{0}{0}{MOTChallenge2015}
\abx@aux@cite{MOT16}
\abx@aux@segm{0}{0}{MOT16}
\@writefile{toc}{\defcounter {refsection}{0}\relax }\@writefile{toc}{\contentsline {chapter}{\numberline {4}Benchmark Dataset And Protocol}{33}{chapter.4}}
\@writefile{lof}{\defcounter {refsection}{0}\relax }\@writefile{lof}{\addvspace {10\p@ }}
\@writefile{lot}{\defcounter {refsection}{0}\relax }\@writefile{lot}{\addvspace {10\p@ }}
\abx@aux@cite{OTB}
\abx@aux@segm{0}{0}{OTB}
\abx@aux@segm{0}{0}{OTB}
\@writefile{toc}{\defcounter {refsection}{0}\relax }\@writefile{toc}{\contentsline {section}{\numberline {4.1}OTB}{34}{section.4.1}}
\@writefile{toc}{\defcounter {refsection}{0}\relax }\@writefile{toc}{\contentsline {subsection}{\numberline {4.1.1}Overview}{34}{subsection.4.1.1}}
\@writefile{lof}{\defcounter {refsection}{0}\relax }\@writefile{lof}{\contentsline {figure}{\numberline {4.1}{\ignorespaces An example of the sequences present in the OTB benchmark. Source: \cite {OTB}\relax }}{34}{figure.caption.48}}
\@writefile{toc}{\defcounter {refsection}{0}\relax }\@writefile{toc}{\contentsline {section}{\numberline {4.2}Evaluation metrics}{35}{section.4.2}}
\@writefile{toc}{\defcounter {refsection}{0}\relax }\@writefile{toc}{\contentsline {subsection}{\numberline {4.2.1}Success plot}{35}{subsection.4.2.1}}
\abx@aux@cite{OTBCode}
\abx@aux@segm{0}{0}{OTBCode}
\@writefile{lof}{\defcounter {refsection}{0}\relax }\@writefile{lof}{\contentsline {figure}{\numberline {4.2}{\ignorespaces An example of success plot. On the x axis the threshold value, on the y axis the percentage of frames whose intersection over union is higher than the threshold\relax }}{36}{figure.caption.49}}
\@writefile{toc}{\defcounter {refsection}{0}\relax }\@writefile{toc}{\contentsline {subsection}{\numberline {4.2.2}Fps plot}{36}{subsection.4.2.2}}
\@writefile{lof}{\defcounter {refsection}{0}\relax }\@writefile{lof}{\contentsline {figure}{\numberline {4.3}{\ignorespaces An example of fps plot. On the x axis the tracker's name, on the y axis the average framerate over all test sequences\relax }}{36}{figure.caption.50}}
\@writefile{toc}{\defcounter {refsection}{0}\relax }\@writefile{toc}{\contentsline {section}{\numberline {4.3}Evaluation modes}{37}{section.4.3}}
\@writefile{toc}{\defcounter {refsection}{0}\relax }\@writefile{toc}{\contentsline {subsection}{\numberline {4.3.1}OPE}{37}{subsection.4.3.1}}
\@writefile{toc}{\defcounter {refsection}{0}\relax }\@writefile{toc}{\contentsline {subsection}{\numberline {4.3.2}SRE}{37}{subsection.4.3.2}}
\@writefile{toc}{\defcounter {refsection}{0}\relax }\@writefile{toc}{\contentsline {subsection}{\numberline {4.3.3}TRE}{37}{subsection.4.3.3}}
\abx@aux@segm{0}{0}{OTBCode}
\@writefile{toc}{\defcounter {refsection}{0}\relax }\@writefile{toc}{\contentsline {chapter}{\numberline {5}Experimental comparison of selected tracking algorithms}{39}{chapter.5}}
\@writefile{lof}{\defcounter {refsection}{0}\relax }\@writefile{lof}{\addvspace {10\p@ }}
\@writefile{lot}{\defcounter {refsection}{0}\relax }\@writefile{lot}{\addvspace {10\p@ }}
\@writefile{toc}{\defcounter {refsection}{0}\relax }\@writefile{toc}{\contentsline {section}{\numberline {5.1}Overview}{39}{section.5.1}}
\@writefile{toc}{\defcounter {refsection}{0}\relax }\@writefile{toc}{\contentsline {section}{\numberline {5.2}OTB}{39}{section.5.2}}
\@writefile{toc}{\defcounter {refsection}{0}\relax }\@writefile{toc}{\contentsline {subsection}{\numberline {5.2.1}OPE TB100}{39}{subsection.5.2.1}}
\@writefile{lof}{\defcounter {refsection}{0}\relax }\@writefile{lof}{\contentsline {figure}{\numberline {5.1}{\ignorespaces Results for various attributes of Re\textsuperscript  {3} and RFL using OPE OTB100. The trackers have been run on a configuration with i7 2600, 8GB DDR3 1333 MHz, GTX 1060 3GB.\relax }}{41}{figure.caption.52}}
\newlabel{fig:OPE_TB100}{{5.1}{41}{Results for various attributes of Re\textsuperscript {3} and RFL using OPE OTB100. The trackers have been run on a configuration with i7 2600, 8GB DDR3 1333 MHz, GTX 1060 3GB.\relax }{figure.caption.52}{}}
\@writefile{toc}{\defcounter {refsection}{0}\relax }\@writefile{toc}{\contentsline {subsection}{\numberline {5.2.2}OPE TB50}{41}{subsection.5.2.2}}
\abx@aux@segm{0}{0}{ROLO}
\abx@aux@segm{0}{0}{ROLO}
\@writefile{lof}{\defcounter {refsection}{0}\relax }\@writefile{lof}{\contentsline {figure}{\numberline {5.3}{\ignorespaces Results for various attributes of Re\textsuperscript  {3} and RFL using OPE OTB50. The trackers have been run on a configuration with i7 2600, 8GB DDR3 1333 MHz, gtx 1060 3GB.\relax }}{43}{figure.caption.54}}
\@writefile{toc}{\defcounter {refsection}{0}\relax }\@writefile{toc}{\contentsline {section}{\numberline {5.3}Integration of YOLO with OTB}{43}{section.5.3}}
\@writefile{toc}{\defcounter {refsection}{0}\relax }\@writefile{toc}{\contentsline {subsection}{\numberline {5.3.1}YOLO}{44}{subsection.5.3.1}}
\@writefile{lof}{\defcounter {refsection}{0}\relax }\@writefile{lof}{\contentsline {figure}{\numberline {5.4}{\ignorespaces An example of the YOLO architecture. Source: \cite {ROLO}\relax }}{44}{figure.caption.55}}
\newlabel{fig:YOLO_Net}{{5.4}{44}{An example of the YOLO architecture. Source: \cite {ROLO}\relax }{figure.caption.55}{}}
\@writefile{lof}{\defcounter {refsection}{0}\relax }\@writefile{lof}{\contentsline {figure}{\numberline {5.5}{\ignorespaces Example of {\color  {blue}YOLO detection} and {\color  {green}ground truth}: note how in this particular case the detection is extremely accurate.\relax }}{44}{figure.caption.56}}
\newlabel{fig:yoloDetection}{{5.5}{44}{Example of {\color {blue}YOLO detection} and {\color {green}ground truth}: note how in this particular case the detection is extremely accurate.\relax }{figure.caption.56}{}}
\@writefile{toc}{\defcounter {refsection}{0}\relax }\@writefile{toc}{\contentsline {subsection}{\numberline {5.3.2}Initialization error}{45}{subsection.5.3.2}}
\@writefile{toc}{\defcounter {refsection}{0}\relax }\@writefile{toc}{\contentsline {subsubsection}{Results}{46}{section*.57}}
\@writefile{lof}{\defcounter {refsection}{0}\relax }\@writefile{lof}{\contentsline {figure}{\numberline {5.7}{\ignorespaces Results for various attributes of Re\textsuperscript  {3}, RFL and ROLO using OPE OTB30 with YOLO detection as initial bounding box. The trackers have been run on a configuration with i7 2600, 8GB DDR3 1333 MHz, gtx 1060 3GB.\relax }}{47}{figure.caption.59}}
\newlabel{fig:OpeTb30}{{5.7}{47}{Results for various attributes of Re\textsuperscript {3}, RFL and ROLO using OPE OTB30 with YOLO detection as initial bounding box. The trackers have been run on a configuration with i7 2600, 8GB DDR3 1333 MHz, gtx 1060 3GB.\relax }{figure.caption.59}{}}
\@writefile{toc}{\defcounter {refsection}{0}\relax }\@writefile{toc}{\contentsline {subsubsection}{Qualitative results}{48}{section*.60}}
\@writefile{lof}{\defcounter {refsection}{0}\relax }\@writefile{lof}{\contentsline {figure}{\numberline {5.8}{\ignorespaces Example of incorrect detection for the OTB sequence "Bird1": the detector is likely fooled by the smaller bird in the background, as well as by the motion blur occurring on the target's wings. Legend: {\color  {blue}detector}, {\color  {green}ground truth}.\relax }}{48}{figure.caption.61}}
\newlabel{fig:yoloBird}{{5.8}{48}{Example of incorrect detection for the OTB sequence "Bird1": the detector is likely fooled by the smaller bird in the background, as well as by the motion blur occurring on the target's wings. Legend: {\color {blue}detector}, {\color {green}ground truth}.\relax }{figure.caption.61}{}}
\@writefile{lof}{\defcounter {refsection}{0}\relax }\@writefile{lof}{\contentsline {figure}{\numberline {5.9}{\ignorespaces Example of inaccurate detection for the OTB sequence "Boy": the detector's bounding box encloses the whole shape of the person as it has been trained to recognize a person and not a face. Legend: {\color  {blue}detector}, {\color  {green}ground truth}.\relax }}{48}{figure.caption.62}}
\newlabel{fig:yoloBoy}{{5.9}{48}{Example of inaccurate detection for the OTB sequence "Boy": the detector's bounding box encloses the whole shape of the person as it has been trained to recognize a person and not a face. Legend: {\color {blue}detector}, {\color {green}ground truth}.\relax }{figure.caption.62}{}}
\@writefile{lof}{\defcounter {refsection}{0}\relax }\@writefile{lof}{\contentsline {figure}{\numberline {5.10}{\ignorespaces Example of incorrect detection for the OTB sequence "CarDark": the detector's bounding box is compleately off the target, as it has been possibly fooled by the low resolution of the image, as well as by the inusual dark background. Legend: {\color  {blue}detector}, {\color  {green}ground truth}.\relax }}{48}{figure.caption.63}}
\newlabel{fig:yoloCarDark}{{5.10}{48}{Example of incorrect detection for the OTB sequence "CarDark": the detector's bounding box is compleately off the target, as it has been possibly fooled by the low resolution of the image, as well as by the inusual dark background. Legend: {\color {blue}detector}, {\color {green}ground truth}.\relax }{figure.caption.63}{}}
\@writefile{lof}{\defcounter {refsection}{0}\relax }\@writefile{lof}{\contentsline {figure}{\numberline {5.11}{\ignorespaces Example of incorrect detection for the OTB sequence "David3": the detector identifies the car behind the target, for which it provides a bounding box, whereas the target, the person in the foreground, is compleately ignored. Legend: {\color  {blue}detector}, {\color  {green}ground truth}.\relax }}{49}{figure.caption.64}}
\newlabel{fig:yoloDavid3}{{5.11}{49}{Example of incorrect detection for the OTB sequence "David3": the detector identifies the car behind the target, for which it provides a bounding box, whereas the target, the person in the foreground, is compleately ignored. Legend: {\color {blue}detector}, {\color {green}ground truth}.\relax }{figure.caption.64}{}}
\@writefile{lof}{\defcounter {refsection}{0}\relax }\@writefile{lof}{\contentsline {figure}{\numberline {5.12}{\ignorespaces Example of inaccurate detection for the OTB sequence "Jump": the detector outputs a bouding box almost as large as the entire image. This behaviour is probably caused by the heavy motion blur occurring in the picture. Legend: {\color  {blue}detector}, {\color  {green}ground truth}.\relax }}{49}{figure.caption.65}}
\newlabel{fig:yoloJump}{{5.12}{49}{Example of inaccurate detection for the OTB sequence "Jump": the detector outputs a bouding box almost as large as the entire image. This behaviour is probably caused by the heavy motion blur occurring in the picture. Legend: {\color {blue}detector}, {\color {green}ground truth}.\relax }{figure.caption.65}{}}
\@writefile{lof}{\defcounter {refsection}{0}\relax }\@writefile{lof}{\contentsline {figure}{\numberline {5.13}{\ignorespaces Example of inaccurate detection for the OTB sequence "Singer2": the detector fails to individuate the correct target most likely due to the mostly black environment, as well as due to the backround clutter. Legend: {\color  {blue}detector}, {\color  {green}ground truth}.\relax }}{49}{figure.caption.66}}
\newlabel{fig:yoloSinger2}{{5.13}{49}{Example of inaccurate detection for the OTB sequence "Singer2": the detector fails to individuate the correct target most likely due to the mostly black environment, as well as due to the backround clutter. Legend: {\color {blue}detector}, {\color {green}ground truth}.\relax }{figure.caption.66}{}}
\@writefile{lof}{\defcounter {refsection}{0}\relax }\@writefile{lof}{\contentsline {figure}{\numberline {5.14}{\ignorespaces Example of incorrect detection for the OTB sequence "Skating1": the detector's bounding box is compleately wrong, possibly due to the inusual pose of the skater as well as to the dark environment. Legend: {\color  {blue}detector}, {\color  {green}ground truth}.\relax }}{50}{figure.caption.67}}
\newlabel{fig:yoloSkating1}{{5.14}{50}{Example of incorrect detection for the OTB sequence "Skating1": the detector's bounding box is compleately wrong, possibly due to the inusual pose of the skater as well as to the dark environment. Legend: {\color {blue}detector}, {\color {green}ground truth}.\relax }{figure.caption.67}{}}
\@writefile{lof}{\defcounter {refsection}{0}\relax }\@writefile{lof}{\contentsline {figure}{\numberline {5.15}{\ignorespaces Example of incorrect detection for the OTB sequence "Skiing": the detector fails to individuate the correct target, possibly due to the inusual appearance of the person. Legend: {\color  {blue}detector}, {\color  {green}ground truth}.\relax }}{50}{figure.caption.68}}
\newlabel{fig:yoloSkiing}{{5.15}{50}{Example of incorrect detection for the OTB sequence "Skiing": the detector fails to individuate the correct target, possibly due to the inusual appearance of the person. Legend: {\color {blue}detector}, {\color {green}ground truth}.\relax }{figure.caption.68}{}}
\@writefile{toc}{\defcounter {refsection}{0}\relax }\@writefile{toc}{\contentsline {subsection}{\numberline {5.3.3}Fixing initialization error}{50}{subsection.5.3.3}}
\@writefile{toc}{\defcounter {refsection}{0}\relax }\@writefile{toc}{\contentsline {subsubsection}{Results}{51}{section*.69}}
\@writefile{lof}{\defcounter {refsection}{0}\relax }\@writefile{lof}{\contentsline {figure}{\numberline {5.17}{\ignorespaces Results for various attributes of Re\textsuperscript  {3}, RFL and ROLO using OPE OTB30 with fixed YOLO as detector for the initial bounding box. The trackers have been run on a configuration with i7 2600, 8GB DDR3 1333 MHz, gtx 1060 3GB.\relax }}{52}{figure.caption.71}}
\newlabel{fig:fixYoloOpeTb30}{{5.17}{52}{Results for various attributes of Re\textsuperscript {3}, RFL and ROLO using OPE OTB30 with fixed YOLO as detector for the initial bounding box. The trackers have been run on a configuration with i7 2600, 8GB DDR3 1333 MHz, gtx 1060 3GB.\relax }{figure.caption.71}{}}
\@writefile{toc}{\defcounter {refsection}{0}\relax }\@writefile{toc}{\contentsline {subsection}{\numberline {5.3.4}Qualitative result comparison}{52}{subsection.5.3.4}}
\@writefile{toc}{\defcounter {refsection}{0}\relax }\@writefile{toc}{\contentsline {subsubsection}{Qualitative results}{52}{section*.72}}
\@writefile{toc}{\defcounter {refsection}{0}\relax }\@writefile{toc}{\contentsline {subsubsection}{Bird1}{52}{section*.73}}
\@writefile{toc}{\defcounter {refsection}{0}\relax }\@writefile{toc}{\contentsline {subsubsection}{Boy}{53}{section*.74}}
\@writefile{toc}{\defcounter {refsection}{0}\relax }\@writefile{toc}{\contentsline {subsubsection}{CarDark}{53}{section*.75}}
\@writefile{toc}{\defcounter {refsection}{0}\relax }\@writefile{toc}{\contentsline {subsubsection}{David3}{53}{section*.76}}
\@writefile{toc}{\defcounter {refsection}{0}\relax }\@writefile{toc}{\contentsline {subsubsection}{Jump}{53}{section*.77}}
\@writefile{toc}{\defcounter {refsection}{0}\relax }\@writefile{toc}{\contentsline {subsubsection}{Singer2}{54}{section*.78}}
\@writefile{toc}{\defcounter {refsection}{0}\relax }\@writefile{toc}{\contentsline {subsubsection}{Skating1}{54}{section*.79}}
\@writefile{toc}{\defcounter {refsection}{0}\relax }\@writefile{toc}{\contentsline {subsubsection}{Skiing}{54}{section*.80}}
\abx@aux@segm{0}{0}{Re3}
\abx@aux@cite{Re3Code}
\abx@aux@segm{0}{0}{Re3Code}
\@writefile{toc}{\defcounter {refsection}{0}\relax }\@writefile{toc}{\contentsline {chapter}{\numberline {6}Improving Re\textsuperscript  {3}}{55}{chapter.6}}
\@writefile{lof}{\defcounter {refsection}{0}\relax }\@writefile{lof}{\addvspace {10\p@ }}
\@writefile{lot}{\defcounter {refsection}{0}\relax }\@writefile{lot}{\addvspace {10\p@ }}
\@writefile{toc}{\defcounter {refsection}{0}\relax }\@writefile{toc}{\contentsline {section}{\numberline {6.1}Overview}{55}{section.6.1}}
\@writefile{toc}{\defcounter {refsection}{0}\relax }\@writefile{toc}{\contentsline {section}{\numberline {6.2}Re\textsuperscript  {3} failures}{56}{section.6.2}}
\@writefile{lof}{\defcounter {refsection}{0}\relax }\@writefile{lof}{\contentsline {figure}{\numberline {6.1}{\ignorespaces Tracking failure for the OTB sequence "bird1". Failure is caused by the cloud compleately occluding the target, causing the tracker not being able to recover.\relax }}{56}{figure.caption.81}}
\newlabel{fig:re3FailBird1}{{6.1}{56}{Tracking failure for the OTB sequence "bird1". Failure is caused by the cloud compleately occluding the target, causing the tracker not being able to recover.\relax }{figure.caption.81}{}}
\@writefile{lof}{\defcounter {refsection}{0}\relax }\@writefile{lof}{\contentsline {figure}{\numberline {6.2}{\ignorespaces Tracking failure for the OTB sequence "blurCar4". Failure is caused by the combination of fast camera motion and motion blur, causing the tracker to latch onto a similar object.\relax }}{56}{figure.caption.82}}
\newlabel{fig:re3FailBlurCar4}{{6.2}{56}{Tracking failure for the OTB sequence "blurCar4". Failure is caused by the combination of fast camera motion and motion blur, causing the tracker to latch onto a similar object.\relax }{figure.caption.82}{}}
\@writefile{lof}{\defcounter {refsection}{0}\relax }\@writefile{lof}{\contentsline {figure}{\numberline {6.3}{\ignorespaces Tracking failure for the OTB sequence "crowds". The tracker fails to follow the correct target, since during the partial occlusion phase it latches onto a similar object, possibly due to both the low resolution of the image, as well as the extremely similar shape and appearance of the occluder and occluded, causing the CNN to output extremely similar activations, which fool the following LSTM module.\relax }}{56}{figure.caption.83}}
\newlabel{fig:re3FailCrowds}{{6.3}{56}{Tracking failure for the OTB sequence "crowds". The tracker fails to follow the correct target, since during the partial occlusion phase it latches onto a similar object, possibly due to both the low resolution of the image, as well as the extremely similar shape and appearance of the occluder and occluded, causing the CNN to output extremely similar activations, which fool the following LSTM module.\relax }{figure.caption.83}{}}
\@writefile{lof}{\defcounter {refsection}{0}\relax }\@writefile{lof}{\contentsline {figure}{\numberline {6.4}{\ignorespaces Tracking failure for the OTB sequence "human6". Tracking failure is due to the complete occlusion, causing the tracker to latch onto the occluder and lose track of the target.\relax }}{56}{figure.caption.84}}
\newlabel{fig:re3FailHuman6}{{6.4}{56}{Tracking failure for the OTB sequence "human6". Tracking failure is due to the complete occlusion, causing the tracker to latch onto the occluder and lose track of the target.\relax }{figure.caption.84}{}}
\abx@aux@segm{0}{0}{Re3}
\abx@aux@segm{0}{0}{Re3}
\@writefile{toc}{\defcounter {refsection}{0}\relax }\@writefile{toc}{\contentsline {section}{\numberline {6.3}Experiments}{57}{section.6.3}}
\@writefile{toc}{\defcounter {refsection}{0}\relax }\@writefile{toc}{\contentsline {subsection}{\numberline {6.3.1}Retraining Re\textsuperscript  {3}}{57}{subsection.6.3.1}}
\@writefile{lof}{\defcounter {refsection}{0}\relax }\@writefile{lof}{\contentsline {figure}{\numberline {6.5}{\ignorespaces A visualization of the training loss for the model Re\textsuperscript  {3} Retrained. On the horizontal and vertical axes the number of training steps and the training loss, respectively. Notice how the loss decreases more slowly and is higher compared to the residual and dense model\relax }}{57}{figure.caption.85}}
\newlabel{fig:re3RetrainedLoss}{{6.5}{57}{A visualization of the training loss for the model Re\textsuperscript {3} Retrained. On the horizontal and vertical axes the number of training steps and the training loss, respectively. Notice how the loss decreases more slowly and is higher compared to the residual and dense model\relax }{figure.caption.85}{}}
\abx@aux@segm{0}{0}{Re3}
\abx@aux@segm{0}{0}{Re3}
\abx@aux@segm{0}{0}{Re3}
\@writefile{lot}{\defcounter {refsection}{0}\relax }\@writefile{lot}{\contentsline {table}{\numberline {6.1}{\ignorespaces Testing results between the network of \cite {Re3}, Re\textsuperscript  {3}, and our densely connected LSTM, both tested on the ILSVRC2014 VID validation set. Lost targets denotes the number of times the overlap between the ground truth and predicted bounding boxes is 0, whereas the mean IOU is computed as the mean intersection over union between the 2 bounding bounding boxes. Number of parameters denotes instead the total number of trainable parameters of the model.\relax }}{58}{table.caption.86}}
\newlabel{tab:re3Retrained}{{6.1}{58}{Testing results between the network of \cite {Re3}, Re\textsuperscript {3}, and our densely connected LSTM, both tested on the ILSVRC2014 VID validation set. Lost targets denotes the number of times the overlap between the ground truth and predicted bounding boxes is 0, whereas the mean IOU is computed as the mean intersection over union between the 2 bounding bounding boxes. Number of parameters denotes instead the total number of trainable parameters of the model.\relax }{table.caption.86}{}}
\@writefile{toc}{\defcounter {refsection}{0}\relax }\@writefile{toc}{\contentsline {subsection}{\numberline {6.3.2}Fixed CNN}{58}{subsection.6.3.2}}
\@writefile{lof}{\defcounter {refsection}{0}\relax }\@writefile{lof}{\contentsline {figure}{\numberline {6.6}{\ignorespaces A visualization of the training loss for the model Re\textsuperscript  {3} fixCNN. On the horizontal and vertical axes the number of training steps and the training loss, respectively. Notice how the loss quickly plateaus at relatively high loss values, and is unable to decrease, even if the number of unrolls is increased.\relax }}{58}{figure.caption.87}}
\newlabel{fig:re3FixCnnLoss}{{6.6}{58}{A visualization of the training loss for the model Re\textsuperscript {3} fixCNN. On the horizontal and vertical axes the number of training steps and the training loss, respectively. Notice how the loss quickly plateaus at relatively high loss values, and is unable to decrease, even if the number of unrolls is increased.\relax }{figure.caption.87}{}}
\abx@aux@cite{LSTMvsGRU}
\abx@aux@segm{0}{0}{LSTMvsGRU}
\@writefile{lot}{\defcounter {refsection}{0}\relax }\@writefile{lot}{\contentsline {table}{\numberline {6.2}{\ignorespaces Comparison of the results between Re\textsuperscript  {3} and Re\textsuperscript  {3} with fixed CNN on the Imagenet VID validation set. Lost targets denotes the number of times the overlap between the ground truth and predicted bounding boxes is 0, whereas the mean IOU is computed as the mean intersection over union between the 2 bounding bounding boxes. Number of parameters denotes instead the total number of trainable parameters of the model.\relax }}{59}{table.caption.88}}
\newlabel{table:fixCnn}{{6.2}{59}{Comparison of the results between Re\textsuperscript {3} and Re\textsuperscript {3} with fixed CNN on the Imagenet VID validation set. Lost targets denotes the number of times the overlap between the ground truth and predicted bounding boxes is 0, whereas the mean IOU is computed as the mean intersection over union between the 2 bounding bounding boxes. Number of parameters denotes instead the total number of trainable parameters of the model.\relax }{table.caption.88}{}}
\@writefile{toc}{\defcounter {refsection}{0}\relax }\@writefile{toc}{\contentsline {subsection}{\numberline {6.3.3}GRU}{59}{subsection.6.3.3}}
\@writefile{lof}{\defcounter {refsection}{0}\relax }\@writefile{lof}{\contentsline {figure}{\numberline {6.7}{\ignorespaces Comparison of training loss for Re\textsuperscript  {3} and Re\textsuperscript  {3}-GRU in light blue and magenta, respectively. Notice how the training loss of Re\textsuperscript  {3}-GRU plateaus, whereas Re\textsuperscript  {3} improves over time.\relax }}{59}{figure.caption.89}}
\newlabel{fig:gru}{{6.7}{59}{Comparison of training loss for Re\textsuperscript {3} and Re\textsuperscript {3}-GRU in light blue and magenta, respectively. Notice how the training loss of Re\textsuperscript {3}-GRU plateaus, whereas Re\textsuperscript {3} improves over time.\relax }{figure.caption.89}{}}
\abx@aux@segm{0}{0}{VGG}
\abx@aux@segm{0}{0}{ResNet50}
\abx@aux@segm{0}{0}{ResLSTM}
\@writefile{toc}{\defcounter {refsection}{0}\relax }\@writefile{toc}{\contentsline {subsection}{\numberline {6.3.4}Residual LSTM}{60}{subsection.6.3.4}}
\@writefile{lof}{\defcounter {refsection}{0}\relax }\@writefile{lof}{\contentsline {figure}{\numberline {6.8}{\ignorespaces Example of a residual LSTM block: it consist of 2 cascaded LSTM whose output is added to the first LSTM input.\relax }}{60}{figure.caption.90}}
\newlabel{fig:resLstmBlock}{{6.8}{60}{Example of a residual LSTM block: it consist of 2 cascaded LSTM whose output is added to the first LSTM input.\relax }{figure.caption.90}{}}
\@writefile{lof}{\defcounter {refsection}{0}\relax }\@writefile{lof}{\contentsline {figure}{\numberline {6.9}{\ignorespaces Visualization of the used architecture: each resBlock corresponds to the previously defined residual LSTM block. Note that the convolutional part of the network, denoted by the conv blocks, as well as the big\_concat block, is the same as in the original Re\textsuperscript  {3} model.\relax }}{61}{figure.caption.91}}
\newlabel{fig:resRe3}{{6.9}{61}{Visualization of the used architecture: each resBlock corresponds to the previously defined residual LSTM block. Note that the convolutional part of the network, denoted by the conv blocks, as well as the big\_concat block, is the same as in the original Re\textsuperscript {3} model.\relax }{figure.caption.91}{}}
\@writefile{lof}{\defcounter {refsection}{0}\relax }\@writefile{lof}{\contentsline {figure}{\numberline {6.10}{\ignorespaces A visualization of the training loss for the proposed residual LSTM architecture. Note how the loss quickly converges to a stable value.\relax }}{62}{figure.caption.92}}
\newlabel{fig:resLstmLoss}{{6.10}{62}{A visualization of the training loss for the proposed residual LSTM architecture. Note how the loss quickly converges to a stable value.\relax }{figure.caption.92}{}}
\@writefile{lof}{\defcounter {refsection}{0}\relax }\@writefile{lof}{\contentsline {figure}{\numberline {6.11}{\ignorespaces Visualization of the activations of the different layers: the x axis represents the value, the y axis represents the frequency of that value, the z axis represents time. From top to bottom the activations of LSTM, fc6 without batch normalization, fc6 with batch normalization. Note how the activations between the 2 versions of fc6 differ with respect to the outputs of the LSTM.\relax }}{62}{figure.caption.93}}
\newlabel{fig:activations}{{6.11}{62}{Visualization of the activations of the different layers: the x axis represents the value, the y axis represents the frequency of that value, the z axis represents time. From top to bottom the activations of LSTM, fc6 without batch normalization, fc6 with batch normalization. Note how the activations between the 2 versions of fc6 differ with respect to the outputs of the LSTM.\relax }{figure.caption.93}{}}
\abx@aux@segm{0}{0}{Re3}
\abx@aux@segm{0}{0}{Re3}
\abx@aux@segm{0}{0}{Re3}
\@writefile{lot}{\defcounter {refsection}{0}\relax }\@writefile{lot}{\contentsline {table}{\numberline {6.3}{\ignorespaces Testing results between the original network of \cite {Re3}, Re\textsuperscript  {3}, and our residual LSTM, both tested on the ILSVRC2014 VID validation set. Lost targets denotes the number of times the overlap between the ground truth and predicted bounding boxes is 0, whereas the mean IOU is computed as the mean intersection over union between the 2 bounding bounding boxes. Number of parameters denotes instead the total number of trainable parameters of the model.\relax }}{63}{table.caption.94}}
\newlabel{tab:resLstm}{{6.3}{63}{Testing results between the original network of \cite {Re3}, Re\textsuperscript {3}, and our residual LSTM, both tested on the ILSVRC2014 VID validation set. Lost targets denotes the number of times the overlap between the ground truth and predicted bounding boxes is 0, whereas the mean IOU is computed as the mean intersection over union between the 2 bounding bounding boxes. Number of parameters denotes instead the total number of trainable parameters of the model.\relax }{table.caption.94}{}}
\@writefile{toc}{\defcounter {refsection}{0}\relax }\@writefile{toc}{\contentsline {subsection}{\numberline {6.3.5}Dense LSTM}{63}{subsection.6.3.5}}
\@writefile{lof}{\defcounter {refsection}{0}\relax }\@writefile{lof}{\contentsline {figure}{\numberline {6.12}{\ignorespaces Visualization of the proposed dense LSTM block: each LSTM layer receives as input both the output of the fully connected layer, as well as the output of all previous LSTMs.\relax }}{63}{figure.caption.95}}
\newlabel{fig:denseLSTM}{{6.12}{63}{Visualization of the proposed dense LSTM block: each LSTM layer receives as input both the output of the fully connected layer, as well as the output of all previous LSTMs.\relax }{figure.caption.95}{}}
\abx@aux@segm{0}{0}{Re3}
\@writefile{lof}{\defcounter {refsection}{0}\relax }\@writefile{lof}{\contentsline {figure}{\numberline {6.13}{\ignorespaces A visualization of the proposed dense LSTM architecture.\relax }}{64}{figure.caption.96}}
\newlabel{fig:denseLSTMNet}{{6.13}{64}{A visualization of the proposed dense LSTM architecture.\relax }{figure.caption.96}{}}
\abx@aux@segm{0}{0}{Re3}
\abx@aux@segm{0}{0}{Re3}
\@writefile{lof}{\defcounter {refsection}{0}\relax }\@writefile{lof}{\contentsline {figure}{\numberline {6.14}{\ignorespaces A visualization of the training loss for the dense LSTM architecture. Note how the loss quickly converges to a stable value, differently from Re\textsuperscript  {3} Retrained\relax }}{65}{figure.caption.97}}
\newlabel{fig:denseLstmLoss}{{6.14}{65}{A visualization of the training loss for the dense LSTM architecture. Note how the loss quickly converges to a stable value, differently from Re\textsuperscript {3} Retrained\relax }{figure.caption.97}{}}
\@writefile{lot}{\defcounter {refsection}{0}\relax }\@writefile{lot}{\contentsline {table}{\numberline {6.4}{\ignorespaces Testing results between the network of \cite {Re3}, Re\textsuperscript  {3}, and our densely connected LSTM, both tested on the ILSVRC2014 VID validation set. Lost targets denotes the number of times the overlap between the ground truth and predicted bounding boxes is 0, whereas the mean IOU is computed as the mean intersection over union between the 2 bounding bounding boxes. Number of parameters denotes instead the total number of trainable parameters of the model.\relax }}{65}{table.caption.98}}
\newlabel{tab:denseLstm}{{6.4}{65}{Testing results between the network of \cite {Re3}, Re\textsuperscript {3}, and our densely connected LSTM, both tested on the ILSVRC2014 VID validation set. Lost targets denotes the number of times the overlap between the ground truth and predicted bounding boxes is 0, whereas the mean IOU is computed as the mean intersection over union between the 2 bounding bounding boxes. Number of parameters denotes instead the total number of trainable parameters of the model.\relax }{table.caption.98}{}}
\@writefile{toc}{\defcounter {refsection}{0}\relax }\@writefile{toc}{\contentsline {subsection}{\numberline {6.3.6}Model comparison}{66}{subsection.6.3.6}}
\@writefile{lot}{\defcounter {refsection}{0}\relax }\@writefile{lot}{\contentsline {table}{\numberline {6.5}{\ignorespaces Comparison of the results of the different experiments on the ILSVRC2014 VID validation set. Lost targets denotes the number of times the overlap between the ground truth and predicted bounding boxes is 0, whereas the mean IOU is computed as the mean intersection over union between the 2 bounding bounding boxes. Number of parameters denotes instead the total number of trainable parameters of the model.\relax }}{66}{table.caption.99}}
\newlabel{tab:modelComparison}{{6.5}{66}{Comparison of the results of the different experiments on the ILSVRC2014 VID validation set. Lost targets denotes the number of times the overlap between the ground truth and predicted bounding boxes is 0, whereas the mean IOU is computed as the mean intersection over union between the 2 bounding bounding boxes. Number of parameters denotes instead the total number of trainable parameters of the model.\relax }{table.caption.99}{}}
\@writefile{toc}{\defcounter {refsection}{0}\relax }\@writefile{toc}{\contentsline {subsection}{\numberline {6.3.7}Results}{66}{subsection.6.3.7}}
\@writefile{toc}{\defcounter {refsection}{0}\relax }\@writefile{toc}{\contentsline {subsubsection}{OPE TB100}{67}{section*.100}}
\@writefile{lof}{\defcounter {refsection}{0}\relax }\@writefile{lof}{\contentsline {figure}{\numberline {6.16}{\ignorespaces Results for various attributes of Re\textsuperscript  {3}, RFL and dense Re\textsuperscript  {3} using OPE TB100. The trackers have been run on a configuration with i7 2600, 8GB DDR3 1333 MHz, GTX 1060 3GB.\relax }}{68}{figure.caption.102}}
\newlabel{fig:exp_OPE_TB100}{{6.16}{68}{Results for various attributes of Re\textsuperscript {3}, RFL and dense Re\textsuperscript {3} using OPE TB100. The trackers have been run on a configuration with i7 2600, 8GB DDR3 1333 MHz, GTX 1060 3GB.\relax }{figure.caption.102}{}}
\@writefile{toc}{\defcounter {refsection}{0}\relax }\@writefile{toc}{\contentsline {subsubsection}{OPE TB50}{69}{section*.103}}
\@writefile{lof}{\defcounter {refsection}{0}\relax }\@writefile{lof}{\contentsline {figure}{\numberline {6.18}{\ignorespaces Results for various attributes of dense Re\textsuperscript  {3} and other state of the art trackers using OPE TB50. The trackers have been run on a configuration with i7 2600, 8GB DDR3 1333 MHz, GTX 1060 3GB.\relax }}{70}{figure.caption.105}}
\newlabel{fig:exp_OPE_TB50}{{6.18}{70}{Results for various attributes of dense Re\textsuperscript {3} and other state of the art trackers using OPE TB50. The trackers have been run on a configuration with i7 2600, 8GB DDR3 1333 MHz, GTX 1060 3GB.\relax }{figure.caption.105}{}}
\abx@aux@cite{lossGuide}
\abx@aux@segm{0}{0}{lossGuide}
\abx@aux@segm{0}{0}{lossGuide}
\abx@aux@segm{0}{0}{lossGuide}
\abx@aux@segm{0}{0}{lossGuide}
\@writefile{toc}{\defcounter {refsection}{0}\relax }\@writefile{toc}{\contentsline {chapter}{\numberline {7}Future works}{71}{chapter.7}}
\@writefile{lof}{\defcounter {refsection}{0}\relax }\@writefile{lof}{\addvspace {10\p@ }}
\@writefile{lot}{\defcounter {refsection}{0}\relax }\@writefile{lot}{\addvspace {10\p@ }}
\@writefile{toc}{\defcounter {refsection}{0}\relax }\@writefile{toc}{\contentsline {section}{\numberline {7.1}Loss change}{71}{section.7.1}}
\newlabel{eq:maeLoss}{{7.1}{71}{Loss change}{equation.7.1.1}{}}
\@writefile{lof}{\defcounter {refsection}{0}\relax }\@writefile{lof}{\contentsline {figure}{\numberline {7.1}{\ignorespaces MAE loss(y axis) vs prediction(x axis). Source:\cite {lossGuide}\relax }}{71}{figure.caption.106}}
\newlabel{fig:maeLoss}{{7.1}{71}{MAE loss(y axis) vs prediction(x axis). Source:\cite {lossGuide}\relax }{figure.caption.106}{}}
\newlabel{eq:mseLoss}{{7.2}{71}{Loss change}{equation.7.1.2}{}}
\abx@aux@segm{0}{0}{lossGuide}
\abx@aux@segm{0}{0}{lossGuide}
\abx@aux@segm{0}{0}{lossGuide}
\abx@aux@segm{0}{0}{lossGuide}
\@writefile{lof}{\defcounter {refsection}{0}\relax }\@writefile{lof}{\contentsline {figure}{\numberline {7.2}{\ignorespaces MSE loss(y axis) vs prediction(x axis). Source:\cite {lossGuide}\relax }}{72}{figure.caption.107}}
\newlabel{fig:mseLoss}{{7.2}{72}{MSE loss(y axis) vs prediction(x axis). Source:\cite {lossGuide}\relax }{figure.caption.107}{}}
\@writefile{lof}{\defcounter {refsection}{0}\relax }\@writefile{lof}{\contentsline {figure}{\numberline {7.3}{\ignorespaces Comparison between the MSE and MAE losses. Notice how MSE converges to a stable solution, whereas MAE leads to an unstable solution. Source:\cite {lossGuide}\relax }}{72}{figure.caption.108}}
\newlabel{fig:maeVsMse}{{7.3}{72}{Comparison between the MSE and MAE losses. Notice how MSE converges to a stable solution, whereas MAE leads to an unstable solution. Source:\cite {lossGuide}\relax }{figure.caption.108}{}}
\newlabel{eq:huberLoss}{{7.3}{72}{Loss change}{equation.7.1.3}{}}
\abx@aux@segm{0}{0}{AlexNet}
\abx@aux@cite{MobileNet}
\abx@aux@segm{0}{0}{MobileNet}
\abx@aux@segm{0}{0}{ResNet50}
\abx@aux@cite{InceptionV3}
\abx@aux@segm{0}{0}{InceptionV3}
\abx@aux@cite{TF-slim}
\abx@aux@segm{0}{0}{TF-slim}
\abx@aux@cite{kerasApplication}
\abx@aux@segm{0}{0}{kerasApplication}
\abx@aux@cite{CNNAnalysis}
\abx@aux@segm{0}{0}{CNNAnalysis}
\abx@aux@segm{0}{0}{CNNAnalysis}
\@writefile{lof}{\defcounter {refsection}{0}\relax }\@writefile{lof}{\contentsline {figure}{\numberline {7.4}{\ignorespaces Huber loss(y axis) vs prediction(x axis), the color indicates the delta values. Source:\cite {lossGuide}\relax }}{73}{figure.caption.109}}
\newlabel{fig:huberLoss}{{7.4}{73}{Huber loss(y axis) vs prediction(x axis), the color indicates the delta values. Source:\cite {lossGuide}\relax }{figure.caption.109}{}}
\@writefile{toc}{\defcounter {refsection}{0}\relax }\@writefile{toc}{\contentsline {section}{\numberline {7.2}Changing the CNN}{73}{section.7.2}}
\abx@aux@cite{ILSVRC15}
\abx@aux@segm{0}{0}{ILSVRC15}
\abx@aux@segm{0}{0}{ILSVRC15}
\abx@aux@cite{ALOV}
\abx@aux@segm{0}{0}{ALOV}
\abx@aux@cite{YouTubeBB}
\abx@aux@segm{0}{0}{YouTubeBB}
\abx@aux@segm{0}{0}{Re3}
\abx@aux@cite{Unity}
\abx@aux@segm{0}{0}{Unity}
\@writefile{lof}{\defcounter {refsection}{0}\relax }\@writefile{lof}{\contentsline {figure}{\numberline {7.5}{\ignorespaces CNN architecture comparison. Source:\cite {CNNAnalysis}\relax }}{74}{figure.caption.110}}
\newlabel{fig:cnnComparison}{{7.5}{74}{CNN architecture comparison. Source:\cite {CNNAnalysis}\relax }{figure.caption.110}{}}
\@writefile{toc}{\defcounter {refsection}{0}\relax }\@writefile{toc}{\contentsline {section}{\numberline {7.3}Additional datasets}{74}{section.7.3}}
\@writefile{toc}{\defcounter {refsection}{0}\relax }\@writefile{toc}{\contentsline {section}{\numberline {7.4}No warping}{74}{section.7.4}}
\abx@aux@cite{SnapshotEnsembling}
\abx@aux@segm{0}{0}{SnapshotEnsembling}
\abx@aux@segm{0}{0}{SnapshotEnsembling}
\abx@aux@segm{0}{0}{SnapshotEnsembling}
\@writefile{lof}{\defcounter {refsection}{0}\relax }\@writefile{lof}{\contentsline {figure}{\numberline {7.6}{\ignorespaces Comparison between scaling and warping techniques: on the left the cropped image, in the middle the warped crop of Re\textsuperscript  {3}, while on the right our proposed crop scaling method. Note how the aspect ratio of the tracked object is manitained in the proposed method, whereas in Re\textsuperscript  {3} the object is heavily distorted.\relax }}{75}{figure.caption.111}}
\newlabel{fig:scaleWarpComparison}{{7.6}{75}{Comparison between scaling and warping techniques: on the left the cropped image, in the middle the warped crop of Re\textsuperscript {3}, while on the right our proposed crop scaling method. Note how the aspect ratio of the tracked object is manitained in the proposed method, whereas in Re\textsuperscript {3} the object is heavily distorted.\relax }{figure.caption.111}{}}
\@writefile{toc}{\defcounter {refsection}{0}\relax }\@writefile{toc}{\contentsline {section}{\numberline {7.5}Snapshot ensembling}{75}{section.7.5}}
\@writefile{lof}{\defcounter {refsection}{0}\relax }\@writefile{lof}{\contentsline {figure}{\numberline {7.7}{\ignorespaces Visualization of the proposed training protocol. Source:\cite {SnapshotEnsembling}\relax }}{75}{figure.caption.112}}
\@writefile{toc}{\defcounter {refsection}{0}\relax }\@writefile{toc}{\contentsline {chapter}{\numberline {8}Conclusions}{77}{chapter.8}}
\@writefile{lof}{\defcounter {refsection}{0}\relax }\@writefile{lof}{\addvspace {10\p@ }}
\@writefile{lot}{\defcounter {refsection}{0}\relax }\@writefile{lot}{\addvspace {10\p@ }}
\@writefile{toc}{\defcounter {refsection}{0}\relax }\@writefile{toc}{\contentsline {chapter}{\numberline {A}Appendix}{79}{appendix.A}}
\@writefile{lof}{\defcounter {refsection}{0}\relax }\@writefile{lof}{\addvspace {10\p@ }}
\@writefile{lot}{\defcounter {refsection}{0}\relax }\@writefile{lot}{\addvspace {10\p@ }}
\@writefile{toc}{\defcounter {refsection}{0}\relax }\@writefile{toc}{\contentsline {section}{\numberline {A.1}Re\textsuperscript  {3} failures}{79}{section.A.1}}
\newlabel{appendix:re3Failures}{{A.1}{79}{Re\textsuperscript {3} failures}{section.A.1}{}}
\@writefile{lof}{\defcounter {refsection}{0}\relax }\@writefile{lof}{\contentsline {figure}{\numberline {A.1}{\ignorespaces Sequence: "basketBall". Failure is tricky: a possible cause may be the circular line on the playing field which may activate some unwanted features in the CNN and cause the tracker to diverge from the optimal solution.\relax }}{79}{figure.caption.113}}
\@writefile{lof}{\defcounter {refsection}{0}\relax }\@writefile{lof}{\contentsline {figure}{\numberline {A.2}{\ignorespaces Sequence: "biker". The tracker loses of track the face possibly because of fast motion, causing the following frame not to be fully caught by the tracker\IeC {\textquoteright }s receptive field. Moreover the tracker accumulates error when part of the target goes outside of the image.\relax }}{79}{figure.caption.114}}
\@writefile{lof}{\defcounter {refsection}{0}\relax }\@writefile{lof}{\contentsline {figure}{\numberline {A.3}{\ignorespaces Sequence: "bird1". The tracer loses the object during the occlusion phase and does not understand it loses track of the object. Moreover it is misleaded during occlusion because of the features coming from the CNN, when instead it had to stop tracking as the object was lost.\relax }}{79}{figure.caption.115}}
\@writefile{lof}{\defcounter {refsection}{0}\relax }\@writefile{lof}{\contentsline {figure}{\numberline {A.4}{\ignorespaces Sequence: "bird2". A possible explanation for failure may be the activation of similar features near the tracked object because of the other birds, causing the model to drift from the initialization.\relax }}{80}{figure.caption.116}}
\@writefile{lof}{\defcounter {refsection}{0}\relax }\@writefile{lof}{\contentsline {figure}{\numberline {A.5}{\ignorespaces Sequence: "blurCar1". The failure is most likely caused by the combination of heavy motion blur and camera motion: the former may cause the CNN to be fooled by the blurred shapes and generate some unwanted features, while the latter may negatively affect the receptive field of the tracker, causing the object to be not caught sometimes.\relax }}{80}{figure.caption.117}}
\@writefile{lof}{\defcounter {refsection}{0}\relax }\@writefile{lof}{\contentsline {figure}{\numberline {A.6}{\ignorespaces Sequence: "blurCar3". Failure is really tricky in this sequence: in the initial frames the tracker seems to recover from the errors caused by the blur and camera motion, but around the frame 270 it loses track of the object. This behaviour is probably caused by the accumulation of errors during tracking.\relax }}{80}{figure.caption.118}}
\@writefile{lof}{\defcounter {refsection}{0}\relax }\@writefile{lof}{\contentsline {figure}{\numberline {A.7}{\ignorespaces Sequence: "blurCar4". The failure is probably caused by the presence of 2 almost identical pickups in the pictures + the fast camera motion in the initial frames, when the tracker still did not have a robust enough model of the tracked object in the LSTM.\relax }}{80}{figure.caption.119}}
\@writefile{lof}{\defcounter {refsection}{0}\relax }\@writefile{lof}{\contentsline {figure}{\numberline {A.8}{\ignorespaces Sequence: "board". The tracking fails right at the start, possibly because a combination of background clutter, causing some unwanted feature to activate, and unusual object to track, probably because the LSTM has not been trained with such an object.\relax }}{81}{figure.caption.120}}
\@writefile{lof}{\defcounter {refsection}{0}\relax }\@writefile{lof}{\contentsline {figure}{\numberline {A.9}{\ignorespaces Sequence: "bolt2". The tracking fails right from the beginning, maybe becase the LSTM initial state is somehow bounded to the starting flag, rather than to the runner itself.\relax }}{81}{figure.caption.121}}
\@writefile{lof}{\defcounter {refsection}{0}\relax }\@writefile{lof}{\contentsline {figure}{\numberline {A.10}{\ignorespaces Sequence: "bolt". This case is slightly different from bolt2: the LSTM\IeC {\textquoteright }s initial state seems to be only bound to the runner, but the tracker fails in the following frames, just when the flag eneters the tracker\IeC {\textquoteright }s receptive field. This probably causes some unwanted features to be generated by the CNN and be passed to the LSTM layer, causing the model to drift.\relax }}{81}{figure.caption.122}}
\@writefile{lof}{\defcounter {refsection}{0}\relax }\@writefile{lof}{\contentsline {figure}{\numberline {A.11}{\ignorespaces Sequence: "box". Fine tracking, but failure around frame number 400 due to tracking error accumulation and background clutter caused by the board in the foreground, causng some features to prevail over the ones of the tracked object.\relax }}{81}{figure.caption.123}}
\@writefile{lof}{\defcounter {refsection}{0}\relax }\@writefile{lof}{\contentsline {figure}{\numberline {A.12}{\ignorespaces Sequence: "carDark". Tracking fails possibly because of very low resolution image, making the CNN unable to generate meaningful features.\relax }}{81}{figure.caption.124}}
\@writefile{lof}{\defcounter {refsection}{0}\relax }\@writefile{lof}{\contentsline {figure}{\numberline {A.13}{\ignorespaces Sequence: "clifBar". Failure due to clutter caused by the book, activating some unwanted features of the CNN and as a consequence fooling the LSTM layer.\relax }}{82}{figure.caption.125}}
\@writefile{lof}{\defcounter {refsection}{0}\relax }\@writefile{lof}{\contentsline {figure}{\numberline {A.14}{\ignorespaces Sequence: "coke". LSTM fails to ignore the features coming from the leaf and retain the ones from the coke can.\relax }}{82}{figure.caption.126}}
\@writefile{lof}{\defcounter {refsection}{0}\relax }\@writefile{lof}{\contentsline {figure}{\numberline {A.15}{\ignorespaces Sequence: "coupon". The failure is probably caused by the LSTM layer not being enough robust with the initialization frame, as the 2 coupons are pretty similar: almost the same features are generated by the CNN for the 2 objects, but the LSTM fails to recognize the tracked one.\relax }}{82}{figure.caption.127}}
\@writefile{lof}{\defcounter {refsection}{0}\relax }\@writefile{lof}{\contentsline {figure}{\numberline {A.16}{\ignorespaces Sequence: "crowds". This case is really similar to the coupon sequence failure.\relax }}{82}{figure.caption.128}}
\@writefile{lof}{\defcounter {refsection}{0}\relax }\@writefile{lof}{\contentsline {figure}{\numberline {A.17}{\ignorespaces Sequence: "deer".\relax }}{82}{figure.caption.129}}
\@writefile{lof}{\defcounter {refsection}{0}\relax }\@writefile{lof}{\contentsline {figure}{\numberline {A.18}{\ignorespaces Sequence: "doll". The tracker fails due to a combination of background clutter, activating some unwanted features, and tracking error accumulation, causing the LSTM to diverge around the frame number 1000.\relax }}{83}{figure.caption.130}}
\@writefile{lof}{\defcounter {refsection}{0}\relax }\@writefile{lof}{\contentsline {figure}{\numberline {A.19}{\ignorespaces Sequence: "dragonBaby". The tracker fails probably due to too much fast motion, as the tracker\IeC {\textquoteright }s receptive fiels does not fully enclose the baby\IeC {\textquoteright }s head.\relax }}{83}{figure.caption.131}}
\@writefile{lof}{\defcounter {refsection}{0}\relax }\@writefile{lof}{\contentsline {figure}{\numberline {A.20}{\ignorespaces Sequence: "freeman4". Failure at the end, possibly caused by error accumulation in the LSTM.\relax }}{83}{figure.caption.132}}
\@writefile{lof}{\defcounter {refsection}{0}\relax }\@writefile{lof}{\contentsline {figure}{\numberline {A.21}{\ignorespaces Sequence: "girl2". Failure may be caused by the person in background activating similar feature of the CNN as the tracked girl, resulting in the LSTM failing to maintain the state nformation of the girl and do not care about the features of the other people.\relax }}{83}{figure.caption.133}}
\@writefile{lof}{\defcounter {refsection}{0}\relax }\@writefile{lof}{\contentsline {figure}{\numberline {A.22}{\ignorespaces Sequence: "human3". The tracker fails to follow the object probably because the guy moving from left to right in the picture activates almost the same features as the tracked object, making the LSTM accumulate errors and finally lose the target during the occlusion phase.\relax }}{83}{figure.caption.134}}
\@writefile{lof}{\defcounter {refsection}{0}\relax }\@writefile{lof}{\contentsline {figure}{\numberline {A.23}{\ignorespaces Sequence: "human4-2". Similar to the sequence "girl2".\relax }}{84}{figure.caption.135}}
\@writefile{lof}{\defcounter {refsection}{0}\relax }\@writefile{lof}{\contentsline {figure}{\numberline {A.24}{\ignorespaces Sequence: "human6". Failure is probably caused by the inability of the LSTM to retain the tracked model information and forget about the background\IeC {\textquoteright }s features during heavy occlusion.\relax }}{84}{figure.caption.136}}
\@writefile{lof}{\defcounter {refsection}{0}\relax }\@writefile{lof}{\contentsline {figure}{\numberline {A.25}{\ignorespaces Sequence: "human7". A possible explanation for failure may be the accumulation of tracking errors, fast camera motion and small bounding box size relative to the movement of the camera, resulting in the loss of the tracked object at around frame number 210.\relax }}{84}{figure.caption.137}}
\@writefile{lof}{\defcounter {refsection}{0}\relax }\@writefile{lof}{\contentsline {figure}{\numberline {A.26}{\ignorespaces Sequence: "ironman". Failure due to loss of accuracy during deformation, causing the LSTM to track the wrong object.\relax }}{84}{figure.caption.138}}
\@writefile{lof}{\defcounter {refsection}{0}\relax }\@writefile{lof}{\contentsline {figure}{\numberline {A.27}{\ignorespaces Sequence: "jogging-1". Failure due to heavy occlusion and inability of the LSTM to retain the state information of the tracked object.\relax }}{84}{figure.caption.139}}
\@writefile{lof}{\defcounter {refsection}{0}\relax }\@writefile{lof}{\contentsline {figure}{\numberline {A.28}{\ignorespaces Sequence: "jogging-2". Same as jogging-1.\relax }}{85}{figure.caption.140}}
\@writefile{lof}{\defcounter {refsection}{0}\relax }\@writefile{lof}{\contentsline {figure}{\numberline {A.29}{\ignorespaces Sequence: "jump". Failure is probably caused by the CNN not being able to recognize the person during the heavy deformation phase and as a result not passing the appropriate features to the LSTM, which in contrast is then fooled by the background clutter.\relax }}{85}{figure.caption.141}}
\@writefile{lof}{\defcounter {refsection}{0}\relax }\@writefile{lof}{\contentsline {figure}{\numberline {A.30}{\ignorespaces Sequence: "jump". Failure is probably caused by the CNN not being able to recognize the person during the heavy deformation phase and as a result not passing the appropriate features to the LSTM, which in contrast is then fooled by the background clutter.\relax }}{85}{figure.caption.142}}
\@writefile{lof}{\defcounter {refsection}{0}\relax }\@writefile{lof}{\contentsline {figure}{\numberline {A.31}{\ignorespaces Sequence: "lemming". Again, failure seems to be caused by the heavy occlusion phase, as the LSTM seems unable to retain the tracked object\IeC {\textquoteright }s information and forget about the occluder\IeC {\textquoteright }s features.\relax }}{85}{figure.caption.143}}
\@writefile{lof}{\defcounter {refsection}{0}\relax }\@writefile{lof}{\contentsline {figure}{\numberline {A.32}{\ignorespaces Sequence: "liquor". Failure is probably caused by the accumulation of tracking errors in the LSTM as it happens around frame number 850.\relax }}{85}{figure.caption.144}}
\@writefile{lof}{\defcounter {refsection}{0}\relax }\@writefile{lof}{\contentsline {figure}{\numberline {A.33}{\ignorespaces Sequence: "matrix". Failure happens due to the loss of accuracy, making the tracker follow also part of the background, as well as the complete occlusion frame, in which the LSTM is unable to track the correct object.\relax }}{86}{figure.caption.145}}
\@writefile{lof}{\defcounter {refsection}{0}\relax }\@writefile{lof}{\contentsline {figure}{\numberline {A.34}{\ignorespaces Sequence: "rubik". Failure is probably caused by the presence of the same features within the rubik\IeC {\textquoteright }s cube which then fool the LSTM.\relax }}{86}{figure.caption.146}}
\@writefile{lof}{\defcounter {refsection}{0}\relax }\@writefile{lof}{\contentsline {figure}{\numberline {A.35}{\ignorespaces Sequence: "skating1". The tracker fails probably because of tracking error accumulation.\relax }}{86}{figure.caption.147}}
\@writefile{lof}{\defcounter {refsection}{0}\relax }\@writefile{lof}{\contentsline {figure}{\numberline {A.36}{\ignorespaces Sequence: "skating2-1". The tracker fails in following the correct target because of the multiple occlusion frames as well as the similar objects, causing the LSTM to fail to retain the state information of the tracked object.\relax }}{86}{figure.caption.148}}
\@writefile{lof}{\defcounter {refsection}{0}\relax }\@writefile{lof}{\contentsline {figure}{\numberline {A.37}{\ignorespaces Sequence: "soccer". The tracker loses of sight the target during the heavy occlusion phase and as a result it follows the most likely image crop.\relax }}{86}{figure.caption.149}}
\@writefile{lof}{\defcounter {refsection}{0}\relax }\@writefile{lof}{\contentsline {figure}{\numberline {A.38}{\ignorespaces Sequence: "subway". The LSTM fails to track the correct object probably because of similar visual features generated by the CNN for the 2 persons during the occlusion frame, causing the LSTM to being unable to distinguish between the 2.\relax }}{87}{figure.caption.150}}
\@writefile{lof}{\defcounter {refsection}{0}\relax }\@writefile{lof}{\contentsline {figure}{\numberline {A.39}{\ignorespaces Sequence: "suv". Failure is caused by the occlusion phase, in which the LSTM is unable to retain the state information of the tracked object and forget about the occluder\IeC {\textquoteright }s appearance.\relax }}{87}{figure.caption.151}}
\@writefile{lof}{\defcounter {refsection}{0}\relax }\@writefile{lof}{\contentsline {figure}{\numberline {A.40}{\ignorespaces Sequence: "sylvester". Failure is tricky: a possible explanation is that the tracker has been trained to follow the plant and as a result its features prevail over the toy\IeC {\textquoteright }s ones.\relax }}{87}{figure.caption.152}}
\@writefile{lof}{\defcounter {refsection}{0}\relax }\@writefile{lof}{\contentsline {figure}{\numberline {A.41}{\ignorespaces Sequence: "tiger1". Failure is probably caused the loss of accuracy already in the initial frames, causing premature error accumulation. Moreover the LSTM seems to fail in retaining the target\IeC {\textquoteright }s appearance during occlusion.\relax }}{87}{figure.caption.153}}
\@writefile{lof}{\defcounter {refsection}{0}\relax }\@writefile{lof}{\contentsline {figure}{\numberline {A.42}{\ignorespaces Sequence: "toy". Failure seems to happen due to the LSTM bein unable to track the object during the rotation + scaling phase.\relax }}{88}{figure.caption.154}}
\@writefile{lof}{\defcounter {refsection}{0}\relax }\@writefile{lof}{\contentsline {figure}{\numberline {A.43}{\ignorespaces Sequence: "trellis". Failure is probably due to error accumulation in the LSTM state, as it happens around frame number 500.\relax }}{88}{figure.caption.155}}
\@writefile{lof}{\defcounter {refsection}{0}\relax }\@writefile{lof}{\contentsline {figure}{\numberline {A.44}{\ignorespaces Sequence: "walking2". Failure happens because of occlusion: the CNN generates similar visual features for the 2 persons and the LSTM is unable to distinguish the target between the 2.\relax }}{88}{figure.caption.156}}
\@writefile{toc}{\defcounter {refsection}{0}\relax }\@writefile{toc}{\contentsline {chapter}{List of Figures}{89}{appendix*.157}}
\@writefile{toc}{\defcounter {refsection}{0}\relax }\@writefile{toc}{\contentsline {chapter}{List of Tables}{95}{appendix*.158}}
\abx@aux@refcontextdefaultsdone
\abx@aux@defaultrefcontext{0}{Unity}{nty/global//global/global}
\abx@aux@defaultrefcontext{0}{GRUPaper}{nty/global//global/global}
\abx@aux@defaultrefcontext{0}{ALOV}{nty/global//global/global}
\abx@aux@defaultrefcontext{0}{RNNGuide}{nty/global//global/global}
\abx@aux@defaultrefcontext{0}{CNNAnalysis}{nty/global//global/global}
\abx@aux@defaultrefcontext{0}{LSTMvsGRU}{nty/global//global/global}
\abx@aux@defaultrefcontext{0}{GRUGuide}{nty/global//global/global}
\abx@aux@defaultrefcontext{0}{ANNGuide}{nty/global//global/global}
\abx@aux@defaultrefcontext{0}{Detect2Track}{nty/global//global/global}
\abx@aux@defaultrefcontext{0}{Geiger2012CVPR}{nty/global//global/global}
\abx@aux@defaultrefcontext{0}{denseRnn}{nty/global//global/global}
\abx@aux@defaultrefcontext{0}{Re3Code}{nty/global//global/global}
\abx@aux@defaultrefcontext{0}{Re3}{nty/global//global/global}
\abx@aux@defaultrefcontext{0}{lossGuide}{nty/global//global/global}
\abx@aux@defaultrefcontext{0}{STRUCK}{nty/global//global/global}
\abx@aux@defaultrefcontext{0}{Hypercolumns}{nty/global//global/global}
\abx@aux@defaultrefcontext{0}{ResNet50}{nty/global//global/global}
\abx@aux@defaultrefcontext{0}{SPP}{nty/global//global/global}
\abx@aux@defaultrefcontext{0}{KCF}{nty/global//global/global}
\abx@aux@defaultrefcontext{0}{lstmPaper}{nty/global//global/global}
\abx@aux@defaultrefcontext{0}{MobileNet}{nty/global//global/global}
\abx@aux@defaultrefcontext{0}{OccMotRes}{nty/global//global/global}
\abx@aux@defaultrefcontext{0}{DenseNet}{nty/global//global/global}
\abx@aux@defaultrefcontext{0}{SnapshotEnsembling}{nty/global//global/global}
\abx@aux@defaultrefcontext{0}{SelfPaced}{nty/global//global/global}
\abx@aux@defaultrefcontext{0}{TLD}{nty/global//global/global}
\abx@aux@defaultrefcontext{0}{VOT_TPAMI}{nty/global//global/global}
\abx@aux@defaultrefcontext{0}{AlexNet}{nty/global//global/global}
\abx@aux@defaultrefcontext{0}{MOTChallenge2015}{nty/global//global/global}
\abx@aux@defaultrefcontext{0}{kerasApplication}{nty/global//global/global}
\abx@aux@defaultrefcontext{0}{TrackingReview}{nty/global//global/global}
\abx@aux@defaultrefcontext{0}{MSEWiki}{nty/global//global/global}
\abx@aux@defaultrefcontext{0}{MOT16}{nty/global//global/global}
\abx@aux@defaultrefcontext{0}{ROLOCode}{nty/global//global/global}
\abx@aux@defaultrefcontext{0}{ROLO}{nty/global//global/global}
\abx@aux@defaultrefcontext{0}{NNGuide}{nty/global//global/global}
\abx@aux@defaultrefcontext{0}{LSTMGuide}{nty/global//global/global}
\abx@aux@defaultrefcontext{0}{CNNGuide}{nty/global//global/global}
\abx@aux@defaultrefcontext{0}{MLPGuide}{nty/global//global/global}
\abx@aux@defaultrefcontext{0}{YouTubeBB}{nty/global//global/global}
\abx@aux@defaultrefcontext{0}{ILSVRC15}{nty/global//global/global}
\abx@aux@defaultrefcontext{0}{TF-slim}{nty/global//global/global}
\abx@aux@defaultrefcontext{0}{VGG}{nty/global//global/global}
\abx@aux@defaultrefcontext{0}{InceptionV3}{nty/global//global/global}
\abx@aux@defaultrefcontext{0}{LSTMImage}{nty/global//global/global}
\abx@aux@defaultrefcontext{0}{ResLSTM}{nty/global//global/global}
\abx@aux@defaultrefcontext{0}{OTB}{nty/global//global/global}
\abx@aux@defaultrefcontext{0}{WuLimYang13}{nty/global//global/global}
\abx@aux@defaultrefcontext{0}{OTBCode}{nty/global//global/global}
\abx@aux@defaultrefcontext{0}{RFL}{nty/global//global/global}
